<?xml version="1.0" encoding="UTF-8" standalone="no"?>
<!-- Created with Inkscape (http://www.inkscape.org/) -->

<svg
   xmlns:dc="http://purl.org/dc/elements/1.1/"
   xmlns:cc="http://creativecommons.org/ns#"
   xmlns:rdf="http://www.w3.org/1999/02/22-rdf-syntax-ns#"
   xmlns:svg="http://www.w3.org/2000/svg"
   xmlns="http://www.w3.org/2000/svg"
   xmlns:sodipodi="http://sodipodi.sourceforge.net/DTD/sodipodi-0.dtd"
   xmlns:inkscape="http://www.inkscape.org/namespaces/inkscape"
   width="1800"
   height="763"
   viewBox="0 0 476.25001 201.87708"
   version="1.1"
   id="svg8"
   inkscape:export-filename="/home/bonlohi/Documents/TESTgolb/boulga/static/images/postimages/typewriter.png"
   inkscape:export-xdpi="96"
   inkscape:export-ydpi="96"
   inkscape:version="0.92.3 (2405546, 2018-03-11)"
   sodipodi:docname="typewriter.svg">
  <defs
     id="defs2">
    <pattern
       y="0"
       x="0"
       height="6"
       width="6"
       patternUnits="userSpaceOnUse"
       id="WMFhbasepattern" />
  </defs>
  <sodipodi:namedview
     id="base"
     pagecolor="#ffffff"
     bordercolor="#e924be"
     borderopacity="1"
     inkscape:pageopacity="0.0"
     inkscape:pageshadow="2"
     inkscape:zoom="0.49497475"
     inkscape:cx="697.24397"
     inkscape:cy="614.19926"
     inkscape:document-units="mm"
     inkscape:current-layer="layer1"
     showgrid="false"
     borderlayer="true"
     showguides="true"
     inkscape:guide-bbox="true"
     units="px"
     inkscape:window-width="1920"
     inkscape:window-height="1027"
     inkscape:window-x="0"
     inkscape:window-y="0"
     inkscape:window-maximized="1">
    <sodipodi:guide
       position="238.125,1032.7294"
       orientation="1,0"
       id="guide1534"
       inkscape:locked="false"
       inkscape:label=""
       inkscape:color="rgb(0,0,255)" />
  </sodipodi:namedview>
  <metadata
     id="metadata5">
    <rdf:RDF>
      <cc:Work
         rdf:about="">
        <dc:format>image/svg+xml</dc:format>
        <dc:type
           rdf:resource="http://purl.org/dc/dcmitype/StillImage" />
        <dc:title />
      </cc:Work>
    </rdf:RDF>
  </metadata>
  <g
     inkscape:label="Calque 1"
     inkscape:groupmode="layer"
     id="layer1"
     transform="translate(0,-95.122924)">
    <rect
       style="opacity:1;fill:#216778;fill-opacity:1;stroke:#ffffff;stroke-width:0;stroke-miterlimit:4;stroke-dasharray:none;stroke-dashoffset:0;stroke-opacity:1"
       id="rect1532"
       width="606.1673"
       height="273.68399"
       x="-52.384834"
       y="40.421234" />
    <g
       id="g2183"
       transform="matrix(0.2425319,0,0,0.2425319,177.2736,133.0613)"
       style="fill:none;stroke:#ffffff;stroke-width:3.08825354;stroke-miterlimit:4;stroke-dasharray:none;stroke-opacity:1">
      <path
         id="path2046"
         d="m 462.51953,256 h 33.47266 v -48 h -33.47266 c -2.41797,-6.77734 -7.75391,-12.11328 -14.52734,-14.52734 V 152 c 0,-13.23047 -10.76953,-24 -24,-24 h -8 V 52.6875 L 363.30469,0 h -251.3125 v 128 h -8 c -13.234378,0 -24.000002,10.76953 -24.000002,24 v 41.47266 C 73.214844,195.88672 67.878906,201.22266 65.464844,208 H 31.992188 c -13.234376,0 -24,10.76953 -24,24 v 66.95312 c -6.417969,7.26954 -9.199219,17 -7.503907,26.6875 2.269531,12.98438 12.886719,23.61719 25.832031,25.86329 1.871094,0.32812 3.75,0.48828 5.613282,0.48828 7.53125,0 14.832031,-2.60938 20.640625,-7.50391 7.257812,-6.08984 11.417969,-15.01562 11.417969,-24.48828 0,-7.72656 -2.871094,-15.20703 -8,-21.03906 V 256 h 9.472656 c 2.414062,6.77734 7.75,12.11328 14.527344,14.52734 v 86.16016 l -20.28125,20.28125 c -7.550782,7.55078 -11.71875,17.59766 -11.71875,28.28906 V 456 c 0,22.05469 17.941406,40 40,40 H 439.99219 c 22.05468,0 40,-17.94531 40,-40 v -50.74219 c 0,-10.6914 -4.16797,-20.73828 -11.72266,-28.28906 L 447.99219,356.6875 v -86.16016 c 6.77343,-2.41406 12.10937,-7.75 14.52734,-14.52734 z m -30.52734,96 H 95.992188 v -80 h 51.246092 c 21.80078,39.57422 62.80859,64 108.30469,64 h 16.88672 c 45.49609,0 86.5039,-24.42578 108.30468,-64 h 51.25782 z m -48,-144 v 48 h -240 v -48 z m -16,-180.6875 L 388.67969,48 h -20.6875 z M 165.90234,272 h 26.08985 v 27.35937 C 181.86328,291.96094 173.02344,282.73437 165.90234,272 Z m 42.08985,0 h 16 v 43.29687 c -5.51953,-1.67187 -10.86328,-3.79296 -16,-6.3125 z m 32,0 h 16 v 48 h -0.44922 c -5.26172,0 -10.45703,-0.38281 -15.55078,-1.12109 z m 32,0 h 16 v 46.87891 C 282.89453,319.61719 277.70312,320 272.44141,320 h -0.44922 z m 32,0 h 16 v 36.98437 c -5.13672,2.51954 -10.48047,4.64063 -16,6.3125 z m 32,0 h 26.08593 c -7.125,10.73437 -15.96484,19.96094 -26.08593,27.35937 z m 112,-24 c 0,4.41406 -3.58594,8 -8,8 h -40 v -48 h 40 c 4.41406,0 8,3.58594 8,8 z m 32,-8 h -16 v -16 h 16 z m -56,-96 c 4.41406,0 8,3.58594 8,8 v 40 h -16 v -48 z m -72,-128 v 48 h 48 v 128 h -272 V 16 Z m -248,128 h 8 v 48 H 95.992188 v -40 c 0,-4.41406 3.582031,-8 8.000002,-8 z m -24.000002,72 c 0,-4.41406 3.582031,-8 8,-8 h 40.000002 v 48 H 87.992188 c -4.417969,0 -8,-3.58594 -8,-8 z m -40,24 v 65.78516 l 2.640624,2.38281 c 3.453126,3.11328 5.359376,7.32031 5.359376,11.83203 0,4.73437 -2.082032,9.19141 -5.710938,12.24609 -3.671875,3.08985 -8.371094,4.33985 -13.226562,3.4961 -6.3125,-1.09375 -11.695313,-6.4961 -12.808594,-12.85547 -0.976563,-5.55078 0.882812,-10.91016 5.097656,-14.71094 l 2.648438,-2.38281 V 232 c 0,-4.41406 3.582031,-8 8,-8 h 32 v 16 z M 456.96094,388.28125 c 4.53515,4.53516 7.03125,10.55859 7.03125,16.97656 V 456 c 0,13.23047 -10.76953,24 -24,24 H 87.992188 c -13.234376,0 -24,-10.76953 -24,-24 v -50.74219 c 0,-6.41797 2.496093,-12.44922 7.03125,-16.97656 L 91.304688,368 H 436.67969 Z m 0,0"
         inkscape:connector-curvature="0"
         style="fill:none;stroke:#ffffff;stroke-width:3.08825354;stroke-miterlimit:4;stroke-dasharray:none;stroke-opacity:1" />
      <path
         id="path2048"
         d="m 239.99219,448 h 16 v 16 h -16 z m 0,0"
         inkscape:connector-curvature="0"
         style="fill:none;stroke:#ffffff;stroke-width:3.08825354;stroke-miterlimit:4;stroke-dasharray:none;stroke-opacity:1" />
      <path
         id="path2050"
         d="m 223.99219,416 h 16 v 16 h -16 z m 0,0"
         inkscape:connector-curvature="0"
         style="fill:none;stroke:#ffffff;stroke-width:3.08825354;stroke-miterlimit:4;stroke-dasharray:none;stroke-opacity:1" />
      <path
         id="path2052"
         d="m 271.99219,448 h 16 v 16 h -16 z m 0,0"
         inkscape:connector-curvature="0"
         style="fill:none;stroke:#ffffff;stroke-width:3.08825354;stroke-miterlimit:4;stroke-dasharray:none;stroke-opacity:1" />
      <path
         id="path2054"
         d="m 255.99219,416 h 16 v 16 h -16 z m 0,0"
         inkscape:connector-curvature="0"
         style="fill:none;stroke:#ffffff;stroke-width:3.08825354;stroke-miterlimit:4;stroke-dasharray:none;stroke-opacity:1" />
      <path
         id="path2056"
         d="m 303.99219,448 h 16 v 16 h -16 z m 0,0"
         inkscape:connector-curvature="0"
         style="fill:none;stroke:#ffffff;stroke-width:3.08825354;stroke-miterlimit:4;stroke-dasharray:none;stroke-opacity:1" />
      <path
         id="path2058"
         d="m 287.99219,416 h 16 v 16 h -16 z m 0,0"
         inkscape:connector-curvature="0"
         style="fill:none;stroke:#ffffff;stroke-width:3.08825354;stroke-miterlimit:4;stroke-dasharray:none;stroke-opacity:1" />
      <path
         id="path2060"
         d="m 335.99219,448 h 16 v 16 h -16 z m 0,0"
         inkscape:connector-curvature="0"
         style="fill:none;stroke:#ffffff;stroke-width:3.08825354;stroke-miterlimit:4;stroke-dasharray:none;stroke-opacity:1" />
      <path
         id="path2062"
         d="m 319.99219,416 h 16 v 16 h -16 z m 0,0"
         inkscape:connector-curvature="0"
         style="fill:none;stroke:#ffffff;stroke-width:3.08825354;stroke-miterlimit:4;stroke-dasharray:none;stroke-opacity:1" />
      <path
         id="path2064"
         d="m 367.99219,448 h 16 v 16 h -16 z m 0,0"
         inkscape:connector-curvature="0"
         style="fill:none;stroke:#ffffff;stroke-width:3.08825354;stroke-miterlimit:4;stroke-dasharray:none;stroke-opacity:1" />
      <path
         id="path2066"
         d="m 351.99219,416 h 16 v 16 h -16 z m 0,0"
         inkscape:connector-curvature="0"
         style="fill:none;stroke:#ffffff;stroke-width:3.08825354;stroke-miterlimit:4;stroke-dasharray:none;stroke-opacity:1" />
      <path
         id="path2068"
         d="m 399.99219,448 h 16 v 16 h -16 z m 0,0"
         inkscape:connector-curvature="0"
         style="fill:none;stroke:#ffffff;stroke-width:3.08825354;stroke-miterlimit:4;stroke-dasharray:none;stroke-opacity:1" />
      <path
         id="path2070"
         d="m 383.99219,416 h 16 v 16 h -16 z m 0,0"
         inkscape:connector-curvature="0"
         style="fill:none;stroke:#ffffff;stroke-width:3.08825354;stroke-miterlimit:4;stroke-dasharray:none;stroke-opacity:1" />
      <path
         id="path2072"
         d="m 111.99219,448 h 16 v 16 h -16 z m 0,0"
         inkscape:connector-curvature="0"
         style="fill:none;stroke:#ffffff;stroke-width:3.08825354;stroke-miterlimit:4;stroke-dasharray:none;stroke-opacity:1" />
      <path
         id="path2074"
         d="m 95.992188,416 h 16.000002 v 16 H 95.992188 Z m 0,0"
         inkscape:connector-curvature="0"
         style="fill:none;stroke:#ffffff;stroke-width:3.08825354;stroke-miterlimit:4;stroke-dasharray:none;stroke-opacity:1" />
      <path
         id="path2076"
         d="m 143.99219,448 h 16 v 16 h -16 z m 0,0"
         inkscape:connector-curvature="0"
         style="fill:none;stroke:#ffffff;stroke-width:3.08825354;stroke-miterlimit:4;stroke-dasharray:none;stroke-opacity:1" />
      <path
         id="path2078"
         d="m 127.99219,416 h 16 v 16 h -16 z m 0,0"
         inkscape:connector-curvature="0"
         style="fill:none;stroke:#ffffff;stroke-width:3.08825354;stroke-miterlimit:4;stroke-dasharray:none;stroke-opacity:1" />
      <path
         id="path2080"
         d="m 175.99219,448 h 16 v 16 h -16 z m 0,0"
         inkscape:connector-curvature="0"
         style="fill:none;stroke:#ffffff;stroke-width:3.08825354;stroke-miterlimit:4;stroke-dasharray:none;stroke-opacity:1" />
      <path
         id="path2082"
         d="m 159.99219,416 h 16 v 16 h -16 z m 0,0"
         inkscape:connector-curvature="0"
         style="fill:none;stroke:#ffffff;stroke-width:3.08825354;stroke-miterlimit:4;stroke-dasharray:none;stroke-opacity:1" />
      <path
         id="path2084"
         d="m 207.99219,448 h 16 v 16 h -16 z m 0,0"
         inkscape:connector-curvature="0"
         style="fill:none;stroke:#ffffff;stroke-width:3.08825354;stroke-miterlimit:4;stroke-dasharray:none;stroke-opacity:1" />
      <path
         id="path2086"
         d="m 191.99219,416 h 16 v 16 h -16 z m 0,0"
         inkscape:connector-curvature="0"
         style="fill:none;stroke:#ffffff;stroke-width:3.08825354;stroke-miterlimit:4;stroke-dasharray:none;stroke-opacity:1" />
      <path
         id="path2088"
         d="m 223.99219,384 h 16 v 16 h -16 z m 0,0"
         inkscape:connector-curvature="0"
         style="fill:none;stroke:#ffffff;stroke-width:3.08825354;stroke-miterlimit:4;stroke-dasharray:none;stroke-opacity:1" />
      <path
         id="path2090"
         d="m 255.99219,384 h 16 v 16 h -16 z m 0,0"
         inkscape:connector-curvature="0"
         style="fill:none;stroke:#ffffff;stroke-width:3.08825354;stroke-miterlimit:4;stroke-dasharray:none;stroke-opacity:1" />
      <path
         id="path2092"
         d="m 287.99219,384 h 16 v 16 h -16 z m 0,0"
         inkscape:connector-curvature="0"
         style="fill:none;stroke:#ffffff;stroke-width:3.08825354;stroke-miterlimit:4;stroke-dasharray:none;stroke-opacity:1" />
      <path
         id="path2094"
         d="m 319.99219,384 h 16 v 16 h -16 z m 0,0"
         inkscape:connector-curvature="0"
         style="fill:none;stroke:#ffffff;stroke-width:3.08825354;stroke-miterlimit:4;stroke-dasharray:none;stroke-opacity:1" />
      <path
         id="path2096"
         d="m 351.99219,384 h 16 v 16 h -16 z m 0,0"
         inkscape:connector-curvature="0"
         style="fill:none;stroke:#ffffff;stroke-width:3.08825354;stroke-miterlimit:4;stroke-dasharray:none;stroke-opacity:1" />
      <path
         id="path2098"
         d="m 383.99219,384 h 16 v 16 h -16 z m 0,0"
         inkscape:connector-curvature="0"
         style="fill:none;stroke:#ffffff;stroke-width:3.08825354;stroke-miterlimit:4;stroke-dasharray:none;stroke-opacity:1" />
      <path
         id="path2100"
         d="m 415.99219,416 h 16 v 16 h -16 z m 0,0"
         inkscape:connector-curvature="0"
         style="fill:none;stroke:#ffffff;stroke-width:3.08825354;stroke-miterlimit:4;stroke-dasharray:none;stroke-opacity:1" />
      <path
         id="path2102"
         d="m 415.99219,384 h 16 v 16 h -16 z m 0,0"
         inkscape:connector-curvature="0"
         style="fill:none;stroke:#ffffff;stroke-width:3.08825354;stroke-miterlimit:4;stroke-dasharray:none;stroke-opacity:1" />
      <path
         id="path2104"
         d="m 95.992188,384 h 16.000002 v 16 H 95.992188 Z m 0,0"
         inkscape:connector-curvature="0"
         style="fill:none;stroke:#ffffff;stroke-width:3.08825354;stroke-miterlimit:4;stroke-dasharray:none;stroke-opacity:1" />
      <path
         id="path2106"
         d="m 127.99219,384 h 16 v 16 h -16 z m 0,0"
         inkscape:connector-curvature="0"
         style="fill:none;stroke:#ffffff;stroke-width:3.08825354;stroke-miterlimit:4;stroke-dasharray:none;stroke-opacity:1" />
      <path
         id="path2108"
         d="m 159.99219,384 h 16 v 16 h -16 z m 0,0"
         inkscape:connector-curvature="0"
         style="fill:none;stroke:#ffffff;stroke-width:3.08825354;stroke-miterlimit:4;stroke-dasharray:none;stroke-opacity:1" />
      <path
         id="path2110"
         d="m 191.99219,384 h 16 v 16 h -16 z m 0,0"
         inkscape:connector-curvature="0"
         style="fill:none;stroke:#ffffff;stroke-width:3.08825354;stroke-miterlimit:4;stroke-dasharray:none;stroke-opacity:1" />
      <path
         id="path2112"
         d="m 143.99219,32 h 16 v 16 h -16 z m 0,0"
         inkscape:connector-curvature="0"
         style="fill:none;stroke:#ffffff;stroke-width:3.08825354;stroke-miterlimit:4;stroke-dasharray:none;stroke-opacity:1" />
      <path
         id="path2114"
         d="m 175.99219,32 h 160 v 16 h -160 z m 0,0"
         inkscape:connector-curvature="0"
         style="fill:none;stroke:#ffffff;stroke-width:3.08825354;stroke-miterlimit:4;stroke-dasharray:none;stroke-opacity:1" />
      <path
         id="path2116"
         d="m 143.99219,64 h 192 v 16 h -192 z m 0,0"
         inkscape:connector-curvature="0"
         style="fill:none;stroke:#ffffff;stroke-width:3.08825354;stroke-miterlimit:4;stroke-dasharray:none;stroke-opacity:1" />
      <path
         id="path2118"
         d="m 143.99219,96 h 240 v 16 h -240 z m 0,0"
         inkscape:connector-curvature="0"
         style="fill:none;stroke:#ffffff;stroke-width:3.08825354;stroke-miterlimit:4;stroke-dasharray:none;stroke-opacity:1" />
      <path
         id="path2120"
         d="m 143.99219,128 h 240 v 16 h -240 z m 0,0"
         inkscape:connector-curvature="0"
         style="fill:none;stroke:#ffffff;stroke-width:3.08825354;stroke-miterlimit:4;stroke-dasharray:none;stroke-opacity:1" />
      <path
         id="path2122"
         d="m 143.99219,160 h 240 v 16 h -240 z m 0,0"
         inkscape:connector-curvature="0"
         style="fill:none;stroke:#ffffff;stroke-width:3.08825354;stroke-miterlimit:4;stroke-dasharray:none;stroke-opacity:1" />
      <path
         id="path2124"
         d="m 399.99219,320 h 16 v 16 h -16 z m 0,0"
         inkscape:connector-curvature="0"
         style="fill:none;stroke:#ffffff;stroke-width:3.08825354;stroke-miterlimit:4;stroke-dasharray:none;stroke-opacity:1" />
      <path
         id="path2126"
         d="m 399.99219,288 h 16 v 16 h -16 z m 0,0"
         inkscape:connector-curvature="0"
         style="fill:none;stroke:#ffffff;stroke-width:3.08825354;stroke-miterlimit:4;stroke-dasharray:none;stroke-opacity:1" />
      <path
         id="path2128"
         d="m 111.99219,320 h 16 v 16 h -16 z m 0,0"
         inkscape:connector-curvature="0"
         style="fill:none;stroke:#ffffff;stroke-width:3.08825354;stroke-miterlimit:4;stroke-dasharray:none;stroke-opacity:1" />
      <path
         id="path2130"
         d="m 111.99219,288 h 16 v 16 h -16 z m 0,0"
         inkscape:connector-curvature="0"
         style="fill:none;stroke:#ffffff;stroke-width:3.08825354;stroke-miterlimit:4;stroke-dasharray:none;stroke-opacity:1" />
    </g>
  </g>
</svg>
